{
	"opts": {
		"template": "node_modules/tui-jsdoc-template",
		"encoding": "utf8",
		"destination": "docs/jsdoc/",
		"readme": "README.md",
		"recurse": true
	},
	"templates": {
		"footerText": "<a href=\"https://gitlab.com/muekoeff/vcard-assistant\">Source code at GitLab: muekoeff/vcard-assistant</a>",
		"logo": {
			"url": "#",
			"width": "0",
			"height": "0",
			"link": "https://gitlab.com/muekoeff/vcard-assistant"
		},
		"name": "vCard-Assistant"
	}
}